<?xml version="1.0" encoding="UTF-8"?>
<svg xmlns="http://www.w3.org/2000/svg" xmlns:xlink="http://www.w3.org/1999/xlink" width="664px" height="429px" viewBox="0 0 664 429">
  <!-- Generator: Sketch 56.3 (81716) - https://sketch.com -->
  <title>logo-nancy-jagura-pms</title>
  <desc>Created with Sketch.</desc>
  <defs>
    <polygon id="path-1" points="0.839651056 0.209657243 523.443002 0.209657243 523.443002 350.834792 0.839651056 350.834792"></polygon>
    <polygon id="path-3" points="0.164463023 0.286332127 321.352525 0.286332127 321.352525 80.4544633 0.164463023 80.4544633"></polygon>
  </defs>
  <g id="Page-1" stroke="none" stroke-width="1" fill="none" fill-rule="evenodd">
    <g id="ACCUEIL" transform="translate(-388.000000, -229.000000)">
      <g id="HEADER">
        <g id="logo-nancy-jagura-pms" transform="translate(388.000000, 229.000000)">
          <path d="M3,25.7093965 C3,11.4507578 12.0692265,0 28.2564977,0 C35.0926121,0 42.5595807,2.87814825 48,9.55354092 L40.8149619,15.7370626 C37.8840022,12.2939653 33.4177781,9.41581703 28.2564977,9.41581703 C19.6757645,9.41581703 13.2555673,15.7370626 13.2555673,25.7093965 C13.2555673,34.984679 19.3966255,41.657261 28.2564977,41.657261 C33.4177781,41.657261 37.8840022,38.9899146 40.8149619,35.3360154 L48,41.5898044 C43.7459215,46.9273078 37.0465852,51 28.2564977,51 C14.7210471,51 3,42.149132 3,25.7093965" id="Fill-1" fill="#1A1919"></path>
          <polyline id="Fill-3" fill="#1A1919" points="55 0 64.8720126 0 64.8720126 40.3740561 87 40.3740561 87 49 55 49 55 0"></polyline>
          <polygon id="Fill-4" fill="#1A1919" points="94 49 104 49 104 0 94 0"></polygon>
          <polyline id="Fill-5" fill="#1A1919" points="156 0 156 49 146.382046 49 125.484371 16.4925617 125.348116 16.4925617 125.348116 49 116 49 116 0 125.348116 0 146.518301 33.1259439 146.582421 33.1259439 146.582421 0 156 0"></polyline>
          <g id="Group-9" transform="translate(166.000000, 0.000000)" fill="#1A1919">
            <polygon id="Fill-6" points="0.882911565 49.4310444 10.5307007 49.4310444 10.5307007 0.728133333 0.882911565 0.728133333"></polygon>
            <path d="M52.1270408,38.7990667 L47.6794785,34.7510111 L52.6716961,28.6446222 L57.3245306,32.8299 C58.4193152,30.4971222 59.0351315,27.8926444 59.0351315,25.0795889 C59.0351315,16.2315 53.0822404,9.16455556 44.3978617,9.16455556 C35.9132812,9.16455556 29.5525828,15.8884444 29.5525828,25.0795889 C29.5525828,34.2021222 35.9132812,40.9918778 44.3978617,40.9918778 C47.3373583,40.9918778 49.9374717,40.1712889 52.1270408,38.7990667 Z M65.3274059,50.8691333 L59.3772517,45.3829889 C55.2718095,48.3332667 50.1400068,49.9799333 44.3978617,49.9799333 C29.6894308,49.9799333 19.5626735,39.4851778 19.5626735,25.0795889 C19.5626735,10.6053889 29.6894308,0.110633333 44.3978617,0.110633333 C58.6245873,0.110633333 69.0907279,10.1937222 69.0907279,25.0795889 C69.0907279,30.7029556 67.5853991,35.6429556 64.9852857,39.6196556 L70.3907846,44.4224333 L65.3274059,50.8691333 L65.3274059,50.8691333 Z" id="Fill-8"></path>
          </g>
          <path d="M245,28.3881088 L245,0 L254.56614,0 L254.56614,27.7737657 C254.56614,34.7363201 258.091365,39.9896356 264.400946,39.9896356 C270.2329,39.9896356 274.439287,35.4871838 274.439287,27.7737657 L274.439287,0 L284,0 L284,28.3881088 C284,41.0135406 276.811147,49 264.400946,49 C252.870016,49 245,41.6306141 245,28.3881088" id="Fill-10" fill="#1A1919"></path>
          <polyline id="Fill-11" fill="#1A1919" points="293 0 324.543464 0 324.543464 8.69497352 302.587011 8.69497352 302.587011 20.4272512 320.162736 20.4272512 320.162736 28.9869266 302.587011 28.9869266 302.587011 40.3740561 326 40.3740561 326 49 293 49 293 0"></polyline>
          <path d="M377.98075,30.9169954 L371.531229,11.6632481 L371.398165,11.6632481 L365.016535,30.9169954 L377.98075,30.9169954 Z M380.764227,39.2005522 L362.235773,39.2005522 L358.977068,49 L349,49 L366.849556,0 L376.014664,0 L394,49 L384.022932,49 L380.764227,39.2005522 L380.764227,39.2005522 Z" id="Fill-12" fill="#1A1919"></path>
          <path d="M398,28.3881088 L398,0 L407.563426,0 L407.563426,27.7737657 C407.563426,34.7363201 411.091365,39.9896356 417.398233,39.9896356 C423.2329,39.9896356 427.439287,35.4871838 427.439287,27.7737657 L427.439287,0 L437,0 L437,28.3881088 C437,41.0135406 429.811147,49 417.398233,49 C405.867302,49 398,41.6306141 398,28.3881088" id="Fill-13" fill="#1A1919"></path>
          <path d="M462.922496,40.3740561 C472.521065,40.3740561 478.847774,33.5401217 478.847774,24.5690296 C478.847774,15.3908486 472.45151,8.69497352 463.551272,8.69497352 L456.665342,8.69497352 L456.665342,40.3740561 L462.922496,40.3740561 Z M447,0 L463.342607,0 C478.986884,0 489,10.0755663 489,24.5690296 C489,38.9934633 479.404213,49 463.551272,49 L447,49 L447,0 L447,0 Z" id="Fill-14" fill="#1A1919"></path>
          <polygon id="Fill-15" fill="#1A1919" points="498 49 508 49 508 0 498 0"></polygon>
          <polyline id="Fill-16" fill="#1A1919" points="528.238553 8.69497352 515 8.69497352 515 0 551 0 551 8.69497352 537.69389 8.69497352 537.69389 49 528.238553 49 528.238553 8.69497352"></polyline>
          <polygon id="Fill-17" fill="#1A1919" points="560 49 570 49 570 0 560 0"></polygon>
          <polyline id="Fill-18" fill="#1A1919" points="621 0 602.81969 49 594.249447 49 576 0 586.577987 0 598.464049 35.1968331 598.602323 35.1968331 610.560288 0 621 0"></polyline>
          <polyline id="Fill-19" fill="#1A1919" points="628 0 659.540684 0 659.540684 8.69497352 637.587011 8.69497352 637.587011 20.4272512 655.162736 20.4272512 655.162736 28.9869266 637.587011 28.9869266 637.587011 40.3740561 661 40.3740561 661 49 628 49 628 0"></polyline>
          <path d="M102,124.037002 L104.017099,121.97252 C107.7576,126.912529 114.11645,129.419399 120.2481,129.419399 C128.17519,129.419399 134.234801,125.290436 134.234801,118.657335 C134.234801,110.844531 127.5019,108.780049 119.72443,105.830791 C112.093809,102.810531 104.166719,100.303661 104.166719,91.7535421 C104.166719,84.4541268 110.89962,78.9269976 119.57481,79.0007291 C124.7367,79.0744605 130.41949,80.9887479 135.282141,84.6753212 L133.41189,86.9609967 C129.37215,83.57208 123.83898,81.6550619 119.27557,81.6550619 C113.06911,81.6550619 106.93469,85.11771 106.86265,91.6060792 C106.86265,98.6078377 113.44316,100.448394 120.619379,103.25292 C129.22253,106.570836 137,109.369901 137,118.509872 C137,126.396408 129.89582,132 120.32291,132 C113.81444,132 107.0095,129.640593 102,124.037002" id="Fill-20" fill="#1A1919"></path>
          <path d="M199.317482,105.461768 C199.317482,91.1631286 188.888228,81.6543693 176.149029,81.6543693 C162.217599,81.6543693 152.757032,92.266385 152.757032,105.461768 C152.757032,118.730884 162.217599,129.419363 176.149029,129.419363 C188.888228,129.419363 199.317482,119.763139 199.317482,105.461768 Z M150,105.461768 C150,90.7917354 160.506528,79 176.074514,79 C190.450271,79 202,89.6147465 202,105.461768 C202,121.382523 190.450271,132 176.074514,132 C160.506528,132 150,120.205534 150,105.461768 L150,105.461768 Z" id="Fill-21" fill="#1A1919"></path>
          <path d="M215,110.621803 L215,79 L217.595788,79 L217.595788,110.324807 C217.595788,122.12489 224.419003,129.327038 234.5,129.327038 C244.43816,129.327038 251.406959,122.276138 251.406959,110.324807 L251.406959,79 L254,79 L254,110.621803 C254,123.981113 246.067052,132 234.5,132 C223.007114,132 215,123.981113 215,110.621803" id="Fill-22" fill="#1A1919"></path>
          <polyline id="Fill-23" fill="#1A1919" points="270 80 272.736824 80 272.736824 129.435951 302 129.435951 302 132 270 132 270 80"></polyline>
          <path d="M342.539084,114.640438 L330.463612,83.2206627 L330.318059,83.2206627 L318.385445,114.640438 L342.539084,114.640438 Z M343.557951,117.207201 L317.366577,117.207201 L311.762803,132 L309,132 L328.93531,80 L331.846361,80 L352,132 L349.234501,132 L343.557951,117.207201 L343.557951,117.207201 Z" id="Fill-24" fill="#1A1919"></path>
          <polyline id="Fill-25" fill="#1A1919" points="405 80 405 132 402.467846 132 367.749196 84.6152883 367.604502 84.6152883 367.604502 132 365 132 365 80 367.459807 80 402.323151 127.607201 402.467846 127.607201 402.467846 80 405 80"></polyline>
          <path d="M468,106.199093 L468,125.142879 C462.953633,129.640561 455.832098,132 447.745817,132 C432.686424,132 422,121.311521 422,105.609233 C422,89.9096764 432.535253,79 447.745817,79 C454.644718,79 461.320985,80.9880462 467.035253,86.4442498 L465.10576,88.2875618 C460.059393,83.3502164 454.19945,81.6543693 447.671606,81.6543693 C434.316324,81.6543693 424.745817,91.2341303 424.745817,105.609233 C424.745817,119.836871 434.167902,129.345631 447.745817,129.345631 C454.570507,129.345631 460.875717,127.723516 465.402605,123.815695 L465.402605,108.77973 L446.410014,108.77973 L446.410014,106.199093 L468,106.199093" id="Fill-26" fill="#1A1919"></path>
          <polyline id="Fill-27" fill="#1A1919" points="483 80 513.465494 80 513.465494 82.4907905 485.630582 82.4907905 485.630582 104.67999 508.935047 104.67999 508.935047 107.244039 485.630582 107.244039 485.630582 129.435951 515 129.435951 515 132 483 132 483 80"></polyline>
          <g id="Group-47" transform="translate(71.000000, 78.000000)">
            <mask id="mask-2" fill="white">
              <use xlink:href="#path-1"></use>
            </mask>
            <g id="Clip-29"></g>
            <path d="M455.180942,45.6206562 L457.181467,43.5390312 C460.883397,48.5200625 467.181344,51.04775 473.254266,51.04775 C481.105432,51.04775 487.107005,46.8845 487.107005,40.196316 C487.107005,32.3186319 480.43859,30.2370069 472.738356,27.2632569 C465.18082,24.2179167 457.326909,21.6902292 457.326909,13.0691076 C457.326909,5.70907639 463.995324,0.136048611 472.587425,0.210392361 C477.699875,0.284736111 483.328237,2.21492014 488.144314,5.93210764 L486.291976,8.23676389 C482.290928,4.81970486 476.810754,2.88676736 472.291051,2.88676736 C466.144035,2.88676736 460.068369,6.37817014 459.997019,12.9204201 C459.997019,19.9803229 466.514502,21.8361632 473.624733,24.6639792 C482.142741,28.0094479 489.848464,30.8317569 489.848464,40.0476285 C489.848464,47.9996562 482.809582,53.6497812 473.328359,53.6497812 C466.88497,53.6497812 460.145206,51.2707812 455.180942,45.6206562" id="Fill-28" fill="#1A1919" mask="url(#mask-2)"></path>
            <path d="M15.8394668,343.13333 L10.4361303,329.126417 L10.3702695,329.126417 L5.03553805,343.13333 L15.8394668,343.13333 Z M16.2922604,344.276021 L4.58000029,344.276021 L2.07454258,350.867833 L0.839651056,350.867833 L9.75282369,327.689104 L11.0535761,327.689104 L20.0682843,350.867833 L18.8306485,350.867833 L16.2922604,344.276021 L16.2922604,344.276021 Z" id="Fill-30" fill="#1A1919" mask="url(#mask-2)"></path>
            <path d="M35.4742421,341.596892 L35.4742421,327.689104 L36.6130865,327.689104 L36.6130865,341.464726 C36.6130865,346.657774 39.6070125,349.821514 44.0306683,349.821514 C48.3912075,349.821514 51.4482501,346.723858 51.4482501,341.464726 L51.4482501,327.689104 L52.5870945,327.689104 L52.5870945,341.596892 C52.5870945,347.472802 49.1074446,351 44.0306683,351 C38.9868225,351 35.4742421,347.472802 35.4742421,341.596892" id="Fill-31" fill="#1A1919" mask="url(#mask-2)"></path>
            <path d="M77.1339939,349.725142 C83.7091053,349.725142 87.9379227,345.451753 87.9379227,339.31151 C87.9379227,333.107937 83.6761748,328.801507 77.1339939,328.801507 L72.0599618,328.801507 L72.0599618,349.725142 L77.1339939,349.725142 Z M70.888187,327.689104 L77.1339939,327.689104 C84.4253423,327.689104 89.1096975,332.458118 89.1096975,339.31151 C89.1096975,346.167656 84.5213895,350.867833 77.2355294,350.867833 L70.888187,350.867833 L70.888187,327.689104 L70.888187,327.689104 Z" id="Fill-32" fill="#1A1919" mask="url(#mask-2)"></path>
            <polygon id="Fill-33" fill="#1A1919" mask="url(#mask-2)" points="107.021113 350.834792 108.159958 350.834792 108.159958 327.689104 107.021113 327.689104"></polygon>
            <path d="M147.605137,339.248181 C147.605137,332.915194 143.04976,328.705135 137.487259,328.705135 C131.40336,328.705135 127.27059,333.405312 127.27059,339.248181 C127.27059,345.121337 131.40336,349.857309 137.487259,349.857309 C143.04976,349.857309 147.605137,345.578413 147.605137,339.248181 Z M126.065885,339.248181 C126.065885,332.749986 130.651449,327.526649 137.454329,327.526649 C143.733066,327.526649 148.776912,332.22958 148.776912,339.248181 C148.776912,346.297069 143.733066,351 137.454329,351 C130.651449,351 126.065885,345.776663 126.065885,339.248181 L126.065885,339.248181 Z" id="Fill-34" fill="#1A1919" mask="url(#mask-2)"></path>
            <path d="M173.650372,339.997125 C178.433518,339.997125 180.192553,337.516247 180.192553,334.319465 C180.192553,330.563729 177.851747,328.801507 174.303492,328.801507 L167.632334,328.801507 L167.632334,339.997125 L173.650372,339.997125 Z M166.460559,327.689104 L174.141584,327.689104 C179.314407,327.689104 181.364327,330.530687 181.364327,334.349753 C181.364327,339.082972 178.142633,341.139816 173.554324,341.139816 L167.632334,341.139816 L167.632334,350.867833 L166.460559,350.867833 L166.460559,327.689104 L166.460559,327.689104 Z" id="Fill-35" fill="#1A1919" mask="url(#mask-2)"></path>
            <path d="M199.594071,339.997125 L205.614853,339.997125 C210.397999,339.997125 212.18722,337.648413 212.18722,334.319465 C212.18722,330.563729 209.846414,328.831795 206.202112,328.831795 L199.594071,328.831795 L199.594071,339.997125 Z M212.253081,350.867833 L205.321223,341.139816 L199.594071,341.139816 L199.594071,350.867833 L198.42504,350.867833 L198.42504,327.689104 L206.103321,327.689104 C211.177353,327.689104 213.358995,330.530687 213.358995,334.349753 C213.358995,338.791104 210.529721,340.878236 206.786628,341.106774 L206.753697,341.205899 L213.682811,350.867833 L212.253081,350.867833 L212.253081,350.867833 Z" id="Fill-36" fill="#1A1919" mask="url(#mask-2)"></path>
            <path d="M251.215281,339.248181 C251.215281,332.915194 246.659903,328.705135 241.094659,328.705135 C235.013504,328.705135 230.880733,333.405312 230.880733,339.248181 C230.880733,345.121337 235.013504,349.857309 241.094659,349.857309 C246.659903,349.857309 251.215281,345.578413 251.215281,339.248181 Z M229.673284,339.248181 C229.673284,332.749986 234.261592,327.526649 241.064472,327.526649 C247.34321,327.526649 252.387055,332.22958 252.387055,339.248181 C252.387055,346.297069 247.34321,351 241.064472,351 C234.261592,351 229.673284,345.776663 229.673284,339.248181 L229.673284,339.248181 Z" id="Fill-37" fill="#1A1919" mask="url(#mask-2)"></path>
            <polyline id="Fill-38" fill="#1A1919" mask="url(#mask-2)" points="273.682074 328.801507 266.264492 328.801507 266.264492 327.689104 282.433338 327.689104 282.433338 328.801507 274.886779 328.801507 274.886779 350.867833 273.682074 350.867833 273.682074 328.801507"></polyline>
            <polyline id="Fill-39" fill="#1A1919" mask="url(#mask-2)" points="298.975397 327.689104 300.147171 327.689104 300.147171 339.380347 314.75731 339.380347 314.75731 327.689104 315.896155 327.689104 315.896155 350.867833 314.75731 350.867833 314.75731 340.520285 300.147171 340.520285 300.147171 350.867833 298.975397 350.867833 298.975397 327.689104"></polyline>
            <path d="M342.981442,320.345594 L344.512708,320.345594 L340.475985,324.786944 L339.046255,324.786944 L342.981442,320.345594 Z M334.490877,327.689104 L348.058219,327.689104 L348.058219,328.801507 L335.659908,328.801507 L335.659908,338.694733 L346.041229,338.694733 L346.041229,339.83467 L335.659908,339.83467 L335.659908,349.725142 L348.741525,349.725142 L348.741525,350.867833 L334.490877,350.867833 L334.490877,327.689104 L334.490877,327.689104 Z" id="Fill-40" fill="#1A1919" mask="url(#mask-2)"></path>
            <path d="M364.372508,347.472802 L365.253397,346.558649 C366.877965,348.74766 369.644122,349.857309 372.311488,349.857309 C375.760952,349.857309 378.398131,348.029003 378.398131,345.091049 C378.398131,341.629934 375.467322,340.715781 372.083719,339.410635 C368.765977,338.072448 365.316514,336.962799 365.316514,333.176774 C365.316514,329.944198 368.244579,327.493608 372.017858,327.526649 C374.265361,327.562444 376.735144,328.40776 378.850925,330.040569 L378.038641,331.053847 C376.279606,329.550451 373.87294,328.705135 371.888881,328.705135 C369.188585,328.705135 366.518475,330.236066 366.488289,333.107937 C366.488289,336.211101 369.350493,337.026128 372.473396,338.267944 C376.21649,339.735545 379.600092,340.977361 379.600092,345.024965 C379.600092,348.519122 376.507375,351 372.344419,351 C369.512401,351 366.551405,349.953681 364.372508,347.472802" id="Fill-41" fill="#1A1919" mask="url(#mask-2)"></path>
            <polygon id="Fill-42" fill="#1A1919" mask="url(#mask-2)" points="397.215134 350.834792 398.353978 350.834792 398.353978 327.689104 397.215134 327.689104"></polygon>
            <path d="M415.67539,347.472802 L416.553535,346.558649 C418.180848,348.74766 420.947005,349.857309 423.611626,349.857309 C427.06109,349.857309 429.69827,348.029003 429.69827,345.091049 C429.69827,341.629934 426.770205,340.715781 423.383858,339.410635 C420.066116,338.072448 416.616652,336.962799 416.616652,333.176774 C416.616652,329.944198 419.547461,327.493608 423.320741,327.526649 C425.565499,327.562444 428.035282,328.40776 430.151063,330.040569 L429.338779,331.053847 C427.579745,329.550451 425.175822,328.705135 423.189019,328.705135 C420.488723,328.705135 417.821357,330.236066 417.788427,333.107937 C417.788427,336.211101 420.650631,337.026128 423.776279,338.267944 C427.516628,339.735545 430.900231,340.977361 430.900231,345.024965 C430.900231,348.519122 427.807513,351 423.644557,351 C420.815283,351 417.854288,349.953681 415.67539,347.472802" id="Fill-43" fill="#1A1919" mask="url(#mask-2)"></path>
            <polyline id="Fill-44" fill="#1A1919" mask="url(#mask-2)" points="453.040464 328.801507 445.622882 328.801507 445.622882 327.689104 461.788984 327.689104 461.788984 328.801507 454.242425 328.801507 454.242425 350.867833 453.040464 350.867833 453.040464 328.801507"></polyline>
            <polyline id="Fill-45" fill="#1A1919" mask="url(#mask-2)" points="478.333786 327.689104 491.901128 327.689104 491.901128 328.801507 479.502817 328.801507 479.502817 338.694733 489.884139 338.694733 489.884139 339.83467 479.502817 339.83467 479.502817 349.725142 492.584435 349.725142 492.584435 350.867833 478.333786 350.867833 478.333786 327.689104"></polyline>
            <path d="M508.215417,347.472802 L509.096307,346.558649 C510.720875,348.74766 513.487032,349.857309 516.154398,349.857309 C519.603861,349.857309 522.241041,348.029003 522.241041,345.091049 C522.241041,341.629934 519.310232,340.715781 515.926629,339.410635 C512.608887,338.072448 509.159423,336.962799 509.159423,333.176774 C509.159423,329.944198 512.087488,327.493608 515.860768,327.526649 C518.10827,327.562444 520.578054,328.40776 522.693834,330.040569 L521.88155,331.053847 C520.122516,329.550451 517.715849,328.705135 515.73179,328.705135 C513.031494,328.705135 510.361384,330.236066 510.331198,333.107937 C510.331198,336.211101 513.193402,337.026128 516.316306,338.267944 C520.059399,339.735545 523.443002,340.977361 523.443002,345.024965 C523.443002,348.519122 520.350285,351 516.187328,351 C513.35531,351 510.394315,349.953681 508.215417,347.472802" id="Fill-46" fill="#1A1919" mask="url(#mask-2)"></path>
          </g>
          <polyline id="Fill-48" fill="#6298AA" points="46.9985819 335 36 323.998582 46.9985819 313 58 323.998582 46.9985819 335"></polyline>
          <polyline id="Fill-49" fill="#6298AA" points="617 335 606 323.998582 617 313 628 323.998582 617 335"></polyline>
          <path d="M655.738491,235.114401 C653.346785,235.114401 651.206838,235.339339 649.70176,235.690462 C611.790218,233.611154 592.456809,235.728866 592.456809,235.728866 C592.456809,235.728866 552.383427,243.212181 537.195823,226.199161 C522.00822,209.186141 512.862819,210.006343 512.862819,210.006343 L509.568067,210.212079 L503.892555,211.750987 L475.350806,240.545839 C475.350806,240.545839 466.20267,254.892516 474.436814,254.996756 C482.668221,255.098253 489.438335,252.843383 500.60054,244.644106 C511.762744,236.447572 528.961679,240.342846 535.184492,242.493476 C541.404568,244.644106 549.458103,248.948109 559.153541,249.258085 C568.851715,249.562575 574.157799,248.13065 584.222665,242.594972 C594.287531,237.059294 611.486466,238.085233 611.486466,238.085233 L649.553989,238.085233 C651.070013,238.461044 653.261954,238.702442 655.738491,238.702442 C660.302982,238.702442 664,237.898698 664,236.908421 C664,235.915401 660.302982,235.114401 655.738491,235.114401" id="Fill-50" fill="#2C4280"></path>
          <path d="M131.209541,218.152242 C131.209541,218.152242 123.605045,216.365502 106.924129,225.03409 C90.245963,233.697155 47.5655965,234.384787 47.5655965,234.384787 L12,234.937103 L27.4511016,237 L94.4141288,236.585764 L133.171192,233.835234 L142,223.517985 L135.870183,219.527507 L131.209541,218.152242" id="Fill-51" fill="#679256"></path>
          <g id="Group-55" transform="translate(0.000000, 185.000000)">
            <mask id="mask-4" fill="white">
              <use xlink:href="#path-3"></use>
            </mask>
            <g id="Clip-53"></g>
            <path d="M240.708081,0.50198755 C240.708081,0.50198755 262.946223,-2.63573062 283.961856,24.0951092 C283.961856,24.0951092 311.577939,52.1867221 321.352525,53.0053763 C321.352525,53.0053763 246.820624,52.0525614 235.332881,57.3697068 C223.84788,62.6868523 201.121831,75.3718857 201.121831,75.3718857 L205.030569,37.4591602 L224.335787,6.90884663 L234.842233,1.18374307 L240.708081,0.50198755" id="Fill-52" fill="#6298AA" mask="url(#mask-4)"></path>
            <path d="M243.334007,0.403420487 C243.334007,0.403420487 221.402863,-2.77262932 202.341599,23.9582105 C183.280334,50.6890504 162.511396,45.3691669 162.511396,45.3691669 C162.511396,45.3691669 150.749548,42.3300158 146.870962,40.5968783 C144.458838,39.5181166 138.560097,34.4583407 130.00802,34.0476446 C130.00802,34.0476446 138.560097,37.0484641 129.520113,42.3710855 C120.477388,47.6882309 112.410477,50.415253 91.8854912,50.8232111 C71.3577648,51.2339072 20.7716799,51.2339072 20.7716799,51.2339072 C20.7716799,51.2339072 16.5559444,50.9190402 13.1954166,50.5877453 C11.8276324,50.0702683 9.77732675,49.7334975 7.45291601,49.7334975 C3.33585833,49.7334975 0,50.7711896 0,52.0525614 C0,53.3311952 3.33585833,54.3688874 7.45291601,54.3688874 C7.81747572,54.3688874 8.16558912,54.3497216 8.51644357,54.3387697 C8.53563092,54.4291228 8.55481827,54.5057861 8.55481827,54.5057861 C8.55481827,54.5057861 41.7900543,53.142275 100.193615,53.4160724 C100.193615,53.4160724 137.828237,51.9156627 153.956577,68.0094737 C153.956577,68.0094737 164.221811,81.2366259 181.816614,80.4179717 C199.411416,79.5993175 215.293062,68.8281279 219.692448,62.1419955 C224.094575,55.461339 228.000572,46.4616186 225.558296,28.8673978 C223.113279,11.2731771 229.894637,2.31452632 243.334007,0.403420487" id="Fill-54" fill="#2C4280" mask="url(#mask-4)"></path>
          </g>
          <path d="M400.383007,222.969965 C400.383007,222.969965 410.605539,222.255577 418.489063,226.856675 C426.372587,231.460511 443.425679,232.990561 443.425679,232.990561 C443.425679,232.990561 472.944335,234.933917 485.596364,224.606763 C498.24565,214.279609 500.26109,209.267942 512,210.086341 C512,210.086341 499.896391,209.577237 500.995971,226.550118 C502.095551,243.522999 484.313063,255.588224 473.495497,254.977846 C462.675188,254.361994 443.974098,242.603327 435.539412,241.377097 C427.107469,240.150867 390.985847,242.195496 390.985847,242.195496 L382,227.880358 L396.439874,223.328528 L400.383007,222.969965" id="Fill-56" fill="#679256"></path>
          <path d="M282,205 C282,205 315.429301,251.254991 374.235748,250.981066 C374.235748,250.981066 400.833582,251.66314 418.402166,244.839666 C435.97075,238.018931 445,243.201594 445,243.201594 C445,243.201594 435.48357,236.92597 415.230023,236.106934 C394.976476,235.290637 392.050659,228.741088 392.050659,228.741088 C392.050659,228.741088 388.632189,221.098578 402.785039,221.643689 C402.785039,221.643689 396.684342,220.961615 371.794375,226.420942 C346.907145,231.880269 318.847771,225.738869 318.847771,225.738869 C318.847771,225.738869 300.78927,221.23554 282,205" id="Fill-57" fill="#2C4280"></path>
          <path d="M298.902424,358.263893 C298.637926,358.907379 298.392715,359.570281 298.169545,360.252599 C297.491769,361.997223 296.794708,363.700243 296.078359,365.369979 C295.362011,367.039715 294.59056,368.706677 293.761249,370.37364 C293.160619,371.585724 292.518661,372.781166 291.84364,373.957193 C291.165865,375.13322 290.297981,376.209395 289.245501,377.196814 C288.3418,378.10657 287.399527,378.713999 286.418681,379.016327 C285.818051,379.318654 285.123744,379.471205 284.330251,379.471205 C283.539513,379.471205 282.955414,379.130046 282.580708,378.447729 C282.128858,377.612861 282.015895,376.72252 282.241821,375.776706 C282.467746,374.825345 282.768061,373.973835 283.145521,373.216629 C283.748907,371.777106 284.53689,370.429113 285.517736,369.180971 C286.495826,367.930056 287.512489,366.773445 288.567725,365.711138 C290.297981,363.966513 292.124669,362.338382 294.045033,360.821196 C295.965397,359.304011 297.866474,357.789599 299.748266,356.275187 C299.447951,356.957505 299.164167,357.617633 298.902424,358.263893 Z M181.82084,336.260544 C180.994284,337.55029 180.107115,338.840037 179.170352,340.124236 C178.225323,341.413982 177.227946,342.590009 176.175466,343.652316 C175.26901,344.562072 174.312961,345.39694 173.296297,346.151373 C172.276879,346.911352 171.127967,347.47995 169.849561,347.85994 C169.246176,348.009717 168.587686,348.123436 167.874093,348.201098 C167.15499,348.275987 166.499256,348.201098 165.895871,347.973659 C165.36963,347.74622 164.972884,347.402288 164.711141,346.94741 C164.446643,346.492531 164.240004,346.004369 164.088469,345.469055 C163.785399,344.259745 163.785399,343.00883 164.088469,341.719083 C164.388784,340.429337 164.766245,339.256084 165.218095,338.193777 C165.590045,337.328399 166.011588,336.490757 166.47997,335.680852 L166.573646,335.578227 C166.623239,335.511659 166.642526,335.439544 166.678343,335.372977 C167.102642,334.665697 167.546226,333.969511 168.039405,333.301062 C169.171786,331.789424 170.414374,330.385958 171.769925,329.096212 C172.899551,327.959016 174.087036,326.896709 175.326869,325.90929 C176.569457,324.927419 177.941539,324.056493 179.451381,323.296514 C180.955712,322.539308 182.57576,321.97071 184.308772,321.59072 C186.039028,321.210731 187.772039,321.135842 189.50505,321.363281 C188.901665,322.425588 188.317566,323.46848 187.752753,324.491956 C187.18794,325.512659 186.603841,326.558324 186.00321,327.617857 C185.622995,328.300175 185.284107,328.982492 184.986547,329.664809 C184.686232,330.347127 184.380406,331.068275 184.082846,331.825481 L183.066183,333.986153 C182.914648,334.366143 182.743827,334.743359 182.556474,335.123349 C182.369121,335.500565 182.12391,335.880554 181.82084,336.260544 Z M319.800502,333.586748 C319.384469,333.547917 319.026295,333.719883 318.72598,334.099872 C316.767043,336.526814 314.717186,338.840037 312.568141,341.036766 C310.424607,343.236269 308.259032,345.355336 306.07417,347.402288 L315.67599,323.410233 C315.827525,322.955355 315.805484,322.500477 315.620886,322.045599 C315.433534,321.59072 315.072604,321.402112 314.546364,321.477001 C314.171659,321.477001 313.887875,321.59072 313.700522,321.818159 C313.510415,322.045599 313.342348,322.311869 313.190813,322.614196 C312.964888,322.916524 312.758249,323.20221 312.568141,323.46848 C312.380789,323.731977 312.212723,324.017662 312.061187,324.31999 C311.231877,325.609736 310.402566,326.841236 309.578766,328.014489 C308.7467,329.190516 307.920144,330.385958 307.090834,331.598042 C305.357822,333.872433 303.60828,336.107994 301.839451,338.304723 C300.067867,340.506999 298.128217,342.551178 296.023256,344.448353 C295.34548,345.055782 294.609846,345.624379 293.819108,346.151373 C293.02837,346.683913 292.179773,347.102734 291.278827,347.402288 C290.975757,347.47995 290.601052,347.535423 290.149201,347.574254 C289.697351,347.613085 289.358463,347.47995 289.132538,347.174849 C288.906613,346.797633 288.810182,346.323339 288.848754,345.754741 C288.887327,345.186143 288.94243,344.673018 289.019576,344.220914 C289.394281,342.551178 289.881949,340.906404 290.488089,339.272726 C291.08872,337.644594 291.68935,336.033105 292.292735,334.441031 C292.896121,332.846184 293.48022,331.181995 294.045033,329.43737 C294.609846,327.692746 294.816485,325.950895 294.66495,324.20627 C294.66495,322.689085 294.138709,321.515832 293.083473,320.680964 C292.105383,320.076309 291.052902,319.884927 289.923276,320.112366 C288.79365,320.339805 287.774232,320.850156 286.870531,321.646193 C285.966831,322.44223 285.101703,323.257683 284.275147,324.092551 C283.217156,325.154858 282.203248,326.272638 281.225157,327.445891 C280.244312,328.621918 279.227648,329.81736 278.175168,331.029444 L276.367766,333.187342 C276.141841,333.492444 275.877343,333.797545 275.577028,334.099872 C275.574273,334.102646 275.574273,334.10542 275.574273,334.108193 C273.422474,336.418642 271.188019,338.729091 268.854377,341.036766 C266.482163,343.386046 263.82892,345.205559 260.891892,346.492531 C259.536341,347.102734 258.029255,347.59367 256.373389,347.973659 C255.621224,348.123436 254.847017,348.201098 254.056279,348.201098 C253.265541,348.201098 252.532661,348.048548 251.854886,347.74622 C250.79965,347.288568 250.105343,346.534136 249.766456,345.469055 C249.427568,344.409522 249.295319,343.349988 249.369709,342.287681 C249.444099,340.997935 249.653493,339.727604 249.992381,338.476689 C250.331269,337.228547 250.79965,336.033105 251.403036,334.895909 C252.832977,332.016863 254.714768,329.28482 257.051165,326.708101 C257.651795,326.103446 258.271712,325.476601 258.91367,324.833115 C259.552873,324.186855 260.288507,323.676504 261.117818,323.296514 C261.644058,322.994186 262.208871,322.786163 262.812256,322.669669 C263.415642,322.55595 263.941882,322.727916 264.393733,323.182794 C264.845583,323.637673 265.145898,324.245101 265.294678,325.002307 C265.371823,325.382297 265.446213,325.740098 265.520603,326.081256 C265.597748,326.422415 265.898064,326.672043 266.424304,326.82182 C266.953299,326.896709 267.311473,326.82182 267.498826,326.594381 C267.686179,326.366942 267.801896,326.045199 267.837714,325.626378 C267.876286,325.213105 267.837714,324.794284 267.724751,324.378237 C267.611789,323.959416 267.518112,323.637673 267.443722,323.410233 C267.066262,322.273038 266.407773,321.402112 265.4655,320.794683 C264.523226,320.190028 263.448704,319.962589 262.247443,320.112366 C260.740357,320.417467 259.384806,321.097011 258.18079,322.159318 C256.976775,323.221625 255.847149,324.283932 254.791913,325.343466 C252.832977,327.542969 251.080679,330.044799 249.540531,332.846184 C249.353178,333.184569 249.209908,333.525727 249.044597,333.861339 C249.041842,333.866886 249.036332,333.866886 249.030821,333.872433 C248.201511,334.931967 247.29781,336.127409 246.322474,337.455986 C245.341629,338.78179 244.399355,339.974459 243.495655,341.036766 C242.517564,342.096299 241.536718,343.103134 240.561383,344.048947 C239.580537,344.997535 238.489484,345.851819 237.282713,346.606251 C237.056788,346.761575 236.682082,346.94741 236.155842,347.174849 C235.626847,347.402288 235.097851,347.574254 234.574366,347.687974 C234.048126,347.801693 233.574234,347.821109 233.160956,347.74622 C232.747678,347.668558 232.502467,347.330173 232.428077,346.71997 C232.350932,346.115315 232.40879,345.527302 232.596143,344.958704 C232.786251,344.39288 232.954317,343.840924 233.105852,343.311157 C233.331777,342.476289 233.59352,341.699668 233.89659,340.978519 C234.19415,340.257371 234.499976,339.522354 234.800291,338.759601 C235.549701,337.01775 236.304622,335.292541 237.056788,333.586748 C237.811708,331.880954 238.489484,330.119688 239.092869,328.300175 C239.241649,327.770408 239.412471,327.146337 239.599823,326.422415 C239.789931,325.70404 239.900138,324.982892 239.938711,324.264517 C239.977284,323.543368 239.883607,322.861051 239.657682,322.214791 C239.431757,321.574078 239.054297,321.022123 238.528056,320.567244 C237.395675,319.657488 236.059411,319.35516 234.516507,319.657488 C232.973603,319.962589 231.673156,320.417467 230.61792,321.022123 C229.113589,321.859764 227.722221,322.841636 226.44106,323.978831 C225.159899,325.116027 223.953128,326.330885 222.826257,327.617857 C221.470706,329.209931 220.115155,330.915725 218.759604,332.732464 C219.134309,331.825481 219.456666,330.915725 219.718409,330.005968 C219.982906,329.096212 220.189545,328.186455 220.34108,327.276699 C220.492616,326.594381 220.567006,325.895422 220.567006,325.174273 C220.567006,324.453125 220.492616,323.751392 220.34108,323.069075 C219.96362,321.859764 219.285845,321.022123 218.307754,320.567244 C217.326908,320.112366 216.310245,320.076309 215.257764,320.453525 C214.202528,320.833514 213.26301,321.32445 212.4337,321.931879 C211.604389,322.539308 210.775078,323.221625 209.948523,323.978831 C209.044822,324.813699 208.179694,325.667983 207.350383,326.536135 C206.521073,327.40706 205.694517,328.300175 204.865207,329.209931 L201.476329,333.531275 C201.437756,333.61171 201.399184,333.669957 201.357856,333.739298 C201.206321,333.805866 201.052031,333.844697 200.911516,333.986153 C199.55872,335.578227 198.203169,337.170301 196.847618,338.759601 C195.489312,340.351675 194.059371,341.907691 192.55504,343.424877 C192.026045,344.032306 191.461232,344.600903 190.860601,345.127897 C190.257216,345.663211 189.65383,346.192977 189.050445,346.71997 C188.598595,347.102734 188.110927,347.421703 187.581931,347.687974 C187.055691,347.954244 186.490878,348.162267 185.890248,348.314818 C185.364007,348.464595 184.832257,348.445179 184.308772,348.256571 C183.779776,348.067963 183.405071,347.74622 183.179146,347.288568 C182.801685,346.606251 182.630864,345.868461 182.669437,345.072424 C182.708009,344.27916 182.801685,343.538596 182.953221,342.856279 C183.102001,341.946522 183.30864,341.053408 183.573137,340.182482 C183.837635,339.311557 184.118664,338.460047 184.421734,337.625179 C184.570514,337.095412 184.760622,336.621118 184.986547,336.202298 C185.212472,335.78625 185.438397,335.350788 185.664323,334.895909 C185.961883,334.441031 186.245667,333.986153 186.51292,333.531275 C186.771907,333.073623 187.017118,332.618744 187.243044,332.163866 C188.072354,330.649454 188.843806,329.1711 189.560154,327.731577 C190.276502,326.292054 190.973564,324.813699 191.65134,323.296514 C191.722974,323.069075 191.877265,322.747332 192.10319,322.328511 C192.329115,321.912464 192.497181,321.496416 192.610144,321.077596 C192.723106,320.664322 192.739638,320.281559 192.668003,319.9404 C192.590858,319.599241 192.329115,319.35516 191.877265,319.20261 C191.497049,319.052833 191.158161,318.958529 190.860601,318.919697 C190.557531,318.880866 190.218643,318.825393 189.841183,318.747731 C187.885002,318.520292 185.948107,318.61737 184.024988,319.033417 C182.104624,319.449464 180.277936,320.076309 178.54768,320.908403 C177.114984,321.59072 175.759433,322.406173 174.478272,323.35476 C173.197111,324.300574 171.99585,325.307409 170.866224,326.366942 C169.433528,327.656688 168.11655,329.037965 166.912534,330.519093 C166.069447,331.553664 165.350344,332.676991 164.691855,333.844697 C164.678079,333.855791 164.664303,333.861339 164.653282,333.872433 C162.994661,335.691946 161.360836,337.511459 159.740787,339.328199 C158.120739,341.150485 156.368441,342.856279 154.48665,344.448353 C153.582949,345.283221 152.604858,346.057069 151.549623,346.778217 C150.494387,347.499365 149.364761,347.934828 148.1635,348.087379 C147.560115,348.237156 146.976016,348.237156 146.411203,348.087379 C145.84639,347.934828 145.413826,347.59367 145.110755,347.061129 C144.81044,346.456474 144.733295,345.77693 144.887585,345.014177 C145.036365,343.727204 145.300863,342.476289 145.675568,341.264205 C146.053029,340.052121 146.430489,338.840037 146.805194,337.625179 C147.40858,336.033105 148.031251,334.441031 148.670454,332.846184 C149.309657,331.256883 149.970902,329.703641 150.648677,328.186455 C152.153008,324.547429 153.695912,320.927819 155.280143,317.327624 C156.861619,313.727429 158.327378,310.068987 159.682929,306.352299 C160.286314,304.610448 160.870413,302.826992 161.435226,301.007479 C162.000039,299.19074 162.432603,297.332396 162.735674,295.435221 C162.881698,294.22591 162.961599,292.991637 162.961599,291.740722 C162.961599,290.489806 162.658528,289.294364 162.057898,288.157168 C161.302977,286.642757 160.247742,285.694169 158.892191,285.316953 C157.539395,284.936963 156.106699,284.898132 154.599612,285.203233 C153.095281,285.505561 151.607482,286.035328 150.138968,286.795307 C148.670454,287.552513 147.447152,288.270888 146.466306,288.953205 C144.584515,290.31784 142.854259,291.854441 141.272783,293.557461 C139.688551,295.266028 138.222793,297.066126 136.867242,298.963301 L138.671888,294.411745 C138.974959,293.657312 139.181597,292.897333 139.29456,292.140127 C139.407523,291.380147 139.388236,290.622941 139.236701,289.862962 C139.010776,288.575989 138.410146,287.588571 137.432055,286.909027 C136.453964,286.22671 135.360156,285.807889 134.15614,285.658112 C132.571909,285.35301 130.954615,285.372426 129.298749,285.713585 C127.640128,286.054743 126.097224,286.567868 124.667283,287.247412 C123.383367,287.779952 122.143534,288.498327 120.939518,289.408084 C119.732747,290.31784 118.829046,291.457809 118.228416,292.822444 C118.076881,293.124772 117.98596,293.429873 117.947387,293.729427 C117.906059,294.034528 118.002491,294.33963 118.228416,294.639184 C118.454341,294.941511 118.754656,295.113477 119.134872,295.152308 C119.506822,295.19114 119.845709,295.055231 120.14878,294.752903 C120.29756,294.525464 120.410522,294.281383 120.487668,294.012339 C120.562058,293.751616 120.67502,293.465931 120.826555,293.163603 C120.975335,292.858502 121.165443,292.595005 121.391368,292.367566 C121.617293,292.140127 121.843219,291.912688 122.069144,291.685249 C123.350305,290.545279 124.854636,289.693769 126.584892,289.125172 C128.320658,288.556574 130.015097,288.198773 131.670963,288.043449 C132.345984,288.043449 133.043045,288.085054 133.759393,288.157168 C134.475742,288.234831 135.134231,288.46227 135.737616,288.839486 C136.341002,289.294364 136.679889,289.862962 136.754279,290.545279 C136.825914,291.23037 136.792852,291.873857 136.641317,292.481286 C136.261101,293.615708 135.850579,294.716846 135.398728,295.776379 C134.946878,296.838686 134.530845,297.900994 134.15614,298.963301 C131.896888,304.646505 129.596309,310.257595 127.265422,315.791023 C124.929026,321.32445 122.595384,326.93554 120.261742,332.618744 L115.856202,343.311157 L113.822875,348.087379 C113.67134,348.464595 113.500518,348.825169 113.313166,349.166328 C113.125813,349.507487 113.034892,349.868061 113.034892,350.248051 C112.954992,350.62804 113.012851,350.930368 113.202959,351.155033 C113.390311,351.382473 113.632767,351.537797 113.935838,351.609912 C114.236153,351.687574 114.519937,351.668158 114.781679,351.554439 C115.046177,351.440719 115.252816,351.232696 115.404351,350.930368 L115.743239,350.248051 L117.324715,346.378812 L121.956181,335.237068 C122.633957,333.492444 123.328263,331.750593 124.047366,330.005968 C124.760959,328.261344 125.493839,326.519493 126.248759,324.774868 L130.880225,313.74407 C131.25493,312.834314 131.670963,311.982804 132.122814,311.186767 C132.571909,310.39073 133.062332,309.575278 133.591327,308.74041 C134.869733,306.39113 136.283143,304.136154 137.828802,301.975482 C139.36895,299.814811 141.046858,297.748443 142.854259,295.776379 C143.75796,294.716846 144.719519,293.729427 145.733427,292.822444 C146.75009,291.912688 147.824613,291.07782 148.954238,290.31784 C150.083864,289.563408 151.342984,288.897732 152.737107,288.329135 C154.131231,287.760537 155.506068,287.516456 156.861619,287.588571 C158.06288,287.666233 158.911477,288.121111 159.4019,288.953205 C159.889567,289.790847 160.211924,290.736661 160.360704,291.798968 C160.512239,293.391042 160.399277,294.980342 160.021816,296.572416 C159.647111,298.167264 159.231078,299.720507 158.779228,301.234918 C157.575212,305.104157 156.183844,308.873545 154.599612,312.551402 C153.018136,316.226485 151.43666,319.923758 149.857939,323.637673 C149.103018,325.382297 148.370139,327.088091 147.653791,328.755053 C146.937443,330.422015 146.240381,332.130582 145.562606,333.872433 C145.036365,335.159406 144.565229,336.429737 144.154706,337.683426 C143.735918,338.931567 143.344682,340.201898 142.967222,341.491644 C142.741296,342.323738 142.553944,343.197438 142.402409,344.107194 C142.248118,345.014177 142.248118,345.89065 142.402409,346.71997 C142.553944,347.707389 142.925894,348.503426 143.532034,349.110855 C144.132665,349.71551 144.887585,350.173162 145.788531,350.47549 C146.995302,350.855479 148.199318,350.836064 149.406089,350.417243 C150.607349,350.001196 151.73973,349.488071 152.792211,348.883416 C154.073372,348.123436 155.260857,347.2747 156.35191,346.323339 C157.442963,345.377525 158.51473,344.373464 159.569966,343.311157 L161.63911,341.014577 C161.449002,341.843897 161.308488,342.681539 161.264405,343.538596 C161.264405,344.75068 161.471044,345.923933 161.884321,347.061129 C162.297599,348.201098 163.033233,349.110855 164.088469,349.793172 C165.36963,350.62804 166.799571,350.949783 168.381047,350.758402 C169.962524,350.569794 171.392465,350.173162 172.673626,349.565733 C174.177957,348.730865 175.591366,347.687974 176.908345,346.437058 C178.225323,345.186143 179.410053,343.879755 180.468044,342.51512 C180.242119,344.032306 180.220077,345.566133 180.41294,347.119376 C180.597538,348.672619 181.481952,349.793172 183.066183,350.47549 C184.493369,351.155033 185.906779,351.21328 187.300903,350.644682 C188.695026,350.076084 189.918328,349.338294 190.973564,348.428538 C192.477895,347.216453 193.869263,345.89065 195.150424,344.448353 C196.431585,343.00883 197.709991,341.566533 198.993907,340.124236 C199.517393,339.522354 200.046388,338.89551 200.572628,338.24925 C201.098869,337.605763 201.666437,336.981693 202.267067,336.374264 C202.377275,336.263318 202.487482,336.130183 202.597689,335.999821 C202.619731,335.985953 202.644527,335.988727 202.663814,335.974858 C202.928312,335.78625 203.170768,335.539396 203.399448,335.237068 L205.091132,332.959903 C206.146368,331.675704 207.256707,330.385958 208.424906,329.096212 C209.590349,327.806465 210.813651,326.594381 212.094812,325.457186 C213.072903,324.625091 214.053748,323.865112 215.031839,323.182794 C215.409299,323.030244 215.784005,322.899882 216.161465,322.786163 C216.53617,322.669669 216.91363,322.689085 217.288335,322.841636 C217.665796,323.069075 217.891721,323.390818 217.968866,323.809639 C218.043256,324.225686 218.043256,324.625091 217.968866,325.002307 C217.968866,325.989726 217.855904,326.93554 217.629978,327.845296 C217.326908,329.135043 216.952203,330.366542 216.500353,331.542569 C216.048502,332.718596 215.596652,333.872433 215.144802,335.009629 C214.315491,336.981693 213.431077,338.931567 212.488803,340.8648 C211.549285,342.798032 210.587726,344.75068 209.609635,346.71997 L208.705934,348.769696 C208.325719,349.526902 208.518582,350.059443 209.270747,350.36177 C209.645452,350.514321 210.022913,350.514321 210.400373,350.36177 C210.775078,350.209219 211.039576,349.98178 211.191111,349.679453 C211.642962,349.072024 212.036953,348.428538 212.375841,347.74622 C212.714728,347.061129 213.072903,346.420416 213.450363,345.810214 C214.651624,343.691147 215.896967,341.622006 217.178128,339.613884 C218.456534,337.605763 219.81484,335.614284 221.244781,333.644994 C222.674722,331.675704 224.217626,329.759113 225.876247,327.900769 C227.529358,326.045199 229.452477,324.547429 231.637339,323.410233 C232.012044,323.182794 232.428077,322.974771 232.879927,322.786163 C233.331777,322.594781 233.783628,322.461646 234.235478,322.386757 C234.612938,322.234207 235.08132,322.139903 235.648888,322.101072 C236.213701,322.065014 236.682082,322.234207 237.056788,322.614196 C237.359858,322.994186 237.492107,323.410233 237.453534,323.865112 C237.414962,324.31999 237.359858,324.738811 237.282713,325.116027 C237.056788,326.330885 236.64351,327.692746 236.042879,329.209931 C235.436739,330.876894 234.781005,332.527214 234.064657,334.155345 C233.351064,335.78625 232.654002,337.436571 231.976226,339.10076 C231.598766,339.938401 231.259878,340.75108 230.956808,341.547117 C230.656493,342.343154 230.430568,343.158607 230.279033,343.993475 C230.130253,344.600903 230.01729,345.224974 229.9429,345.868461 C229.865755,346.511947 229.904327,347.138791 230.053107,347.74622 C230.430568,349.185743 231.259878,350.001196 232.541039,350.189804 C233.819445,350.381186 235.062034,350.286882 236.268805,349.906892 C237.773136,349.374351 239.147973,348.578315 240.390561,347.516007 C241.63315,346.456474 242.779307,345.39694 243.834542,344.334633 C244.815388,343.349988 245.757662,342.287681 246.661362,341.150485 C246.779835,341.000708 246.881777,340.867573 247.00025,340.717796 C246.964433,341.01735 246.906574,341.30581 246.884532,341.605364 C246.732997,342.817448 246.77157,344.01289 246.997495,345.186143 C247.22342,346.36217 247.74966,347.441119 248.578971,348.428538 C249.634207,349.640622 250.876795,350.342355 252.306736,350.530963 C253.736677,350.722344 255.169373,350.702929 256.599314,350.47549 C259.836657,349.942949 262.770929,348.750281 265.407641,346.891937 C268.044353,345.036366 270.493712,343.00883 272.750209,340.809327 L277.045542,336.260544 C277.224629,336.077483 277.403716,335.877781 277.582803,335.672531 C277.626886,335.636473 277.679234,335.619831 277.723317,335.578227 L279.415001,333.531275 L283.936259,328.186455 C284.38811,327.579026 284.875777,327.032618 285.404773,326.536135 C285.931013,326.045199 286.457254,325.496017 286.983494,324.888588 C287.435344,324.511372 287.870664,324.131382 288.283941,323.751392 C288.697219,323.371402 289.168356,323.069075 289.697351,322.841636 C290.072056,322.689085 290.488089,322.614196 290.93994,322.614196 C291.39179,322.614196 291.730678,322.841636 291.953848,323.296514 C292.179773,323.751392 292.273449,324.264517 292.237632,324.833115 C292.199059,325.401713 292.105383,325.950895 291.953848,326.480662 C291.653532,328.225286 291.201682,329.911664 290.601052,331.542569 C289.994911,333.173474 289.394281,334.78219 288.79365,336.374264 L286.983494,341.832803 C286.834714,342.590009 286.683179,343.330573 286.531644,344.048947 C286.382864,344.770096 286.344291,345.51066 286.418681,346.265092 C286.418681,346.875295 286.512357,347.421703 286.702465,347.915413 C286.889818,348.409122 287.209419,348.844585 287.661269,349.224574 C288.115875,349.601791 288.642115,349.868061 289.245501,350.020611 C289.846131,350.173162 290.446761,350.173162 291.052902,350.020611 C292.331308,349.793172 293.516037,349.338294 294.609846,348.655977 C295.698144,347.973659 296.701031,347.216453 297.604732,346.378812 C299.786838,344.487184 301.800879,342.420816 303.646853,340.182482 C305.490071,337.946922 307.280941,335.653115 309.011198,333.301062 C307.807182,336.185656 306.638983,339.028645 305.509358,341.832803 C304.382487,344.636961 303.252861,347.47995 302.12048,350.36177 L301.781592,351.155033 C301.707202,351.310358 301.574953,351.440719 301.387601,351.554439 C301.200248,351.668158 301.029427,351.801293 300.877892,351.95107 L298.61864,353.998023 L293.987174,357.750768 C292.480088,358.887964 291.030861,360.063991 289.639492,361.276075 C288.245369,362.488159 286.909104,363.780679 285.627943,365.14254 C284.198002,366.659725 282.861737,368.384934 281.619149,370.315393 C280.37656,372.248626 279.718071,374.314993 279.640926,376.51727 C279.640926,378.10657 280.131349,379.451789 281.112195,380.552928 C282.090285,381.648519 283.371446,382.122812 284.952923,381.973035 C286.305718,381.895373 287.567593,381.498742 288.735792,380.780367 C289.90399,380.059218 290.898612,379.204935 291.730678,378.22029 C292.706013,377.157983 293.573896,376.004145 294.326062,374.75323 C295.080983,373.502315 295.756003,372.231984 296.362144,370.942238 C297.111554,369.352937 297.830657,367.741448 298.505677,366.110543 C299.183453,364.479638 299.861228,362.829317 300.539004,361.162355 C300.842074,360.480038 301.123103,359.79772 301.387601,359.115403 C301.652099,358.433086 301.894555,357.750768 302.12048,357.071224 C302.272015,356.688461 302.420795,356.308471 302.575086,355.934029 C302.723866,355.551265 302.872646,355.174049 303.026936,354.796833 C303.175716,354.416843 303.324496,353.998023 303.478786,353.543144 C303.624811,353.088266 303.889309,352.71105 304.269524,352.405949 L306.526021,350.36177 C308.184642,348.919473 309.763363,347.441119 311.270449,345.923933 C312.777535,344.409522 314.284622,342.89511 315.788953,341.377925 L319.968568,336.601703 C320.268883,336.221713 320.552667,335.844497 320.817165,335.464507 C321.078908,335.084517 321.059621,334.66847 320.759306,334.213592 C320.533381,333.833602 320.21378,333.628352 319.800502,333.586748 L319.800502,333.586748 Z" id="Fill-58" fill="#1A1919"></path>
          <path d="M541.875232,335.960263 C541.052166,337.226347 540.17441,338.492431 539.241966,339.753069 C538.304052,341.019153 537.316919,342.173603 536.269628,343.21642 C535.372731,344.109486 534.421146,344.929037 533.412137,345.669628 C532.403128,346.415664 531.262866,346.97383 529.991351,347.346848 C529.395243,347.493878 528.738977,347.605511 528.033491,347.681748 C527.319802,347.755263 526.669005,347.681748 526.070163,347.458482 C525.54515,347.235215 525.154125,346.897593 524.891618,346.45106 C524.629112,346.004527 524.424029,345.525322 524.276369,344.999829 C523.975581,343.812705 523.975581,342.58474 524.276369,341.318656 C524.574423,340.052572 524.949042,338.900845 525.39749,337.858027 C526.141258,336.145411 527.079171,334.544427 528.197558,333.055077 C529.318679,331.571173 530.551912,330.193456 531.899991,328.927372 C533.021112,327.81104 534.196922,326.768223 535.430155,325.79892 C536.663388,324.835063 538.025139,323.980116 539.523613,323.234079 C541.016618,322.490766 542.621735,321.9326 544.341698,321.559581 C546.058927,321.186563 547.778891,321.113049 549.498854,321.336315 C548.900012,322.379132 548.32031,323.40289 547.75975,324.407589 C547.199189,325.409565 546.619488,326.436046 546.026114,327.476141 C545.648761,328.14594 545.312425,328.815739 545.014371,329.485538 C544.716317,330.155337 544.415528,330.863255 544.117474,331.606569 L543.108465,333.727599 C542.960805,334.100617 542.79127,334.470913 542.605328,334.843931 C542.416652,335.214227 542.173286,335.587245 541.875232,335.960263 Z M441.209517,340.983757 C440.38645,341.950337 439.525101,342.881521 438.628204,343.774586 C437.731307,344.664929 436.760581,345.446361 435.716024,346.116161 C434.742563,346.715168 433.845667,347.123582 433.0226,347.346848 C432.426492,347.493878 431.770226,347.605511 431.062006,347.681748 C430.351051,347.755263 429.697519,347.681748 429.101411,347.458482 C428.12795,347.009226 427.49356,346.192398 427.195506,344.999829 C426.894717,343.812705 426.894717,342.58474 427.195506,341.318656 C427.49356,340.052572 427.868178,338.900845 428.316627,337.858027 C429.139693,336.145411 430.11042,334.544427 431.228806,333.055077 C432.349927,331.571173 433.547612,330.193456 434.819128,328.927372 C435.940248,327.81104 437.132465,326.768223 438.40398,325.79892 C439.675495,324.835063 441.02084,323.980116 442.442749,323.234079 C444.009584,322.414528 445.672124,321.823689 447.43037,321.447948 C449.185881,321.07493 450.922251,321.039534 452.642215,321.336315 C451.671488,323.495464 450.66248,325.616495 449.617923,327.699407 C448.567898,329.782319 447.446777,331.867954 446.251826,333.950866 C445.431494,335.214227 444.627568,336.425855 443.840049,337.580306 C443.057999,338.732033 442.177509,339.864702 441.209517,340.983757 Z M436.725033,357.167847 C435.899232,359.030215 435.098041,360.851742 434.313256,362.640596 C433.528471,364.424004 432.686264,366.210135 431.789367,367.998989 C431.193259,369.335864 430.536993,370.675463 429.828773,372.015061 C429.117818,373.354659 428.316627,374.61802 427.41973,375.810589 C427.195506,376.180885 426.894717,376.553903 426.522833,376.926921 C426.148215,377.299939 425.754455,377.634839 425.344289,377.93162 C424.931388,378.228401 424.504816,378.435331 424.056367,378.546964 C423.607919,378.658597 423.159471,378.5633 422.711022,378.26652 C422.109445,377.893501 421.737561,377.316276 421.589901,376.534844 C421.439405,375.753411 421.401225,375.064553 421.477789,374.470991 C421.477789,374.024458 421.49693,373.594262 421.532478,373.188571 C421.57076,372.777434 421.625449,372.388079 421.702014,372.015061 C422.076632,370.22893 422.711022,368.499977 423.607919,366.825479 C424.504816,365.150981 425.51109,363.569057 426.634945,362.08243 C427.455278,361.113127 428.297486,360.181943 429.1561,359.288877 C430.014715,358.395812 430.930752,357.540865 431.901479,356.724037 C433.099164,355.678496 434.313256,354.750035 435.546489,353.930484 C436.779722,353.113656 438.029362,352.296828 439.300877,351.474554 L436.725033,357.167847 Z M408.360675,335.960263 C407.537608,337.226347 406.659853,338.492431 405.727408,339.753069 C404.789495,341.019153 403.802362,342.173603 402.755071,343.21642 C401.858174,344.109486 400.906589,344.929037 399.89758,345.669628 C398.888571,346.415664 397.748309,346.97383 396.476794,347.346848 C395.877951,347.493878 395.22442,347.605511 394.5162,347.681748 C393.805245,347.755263 393.151714,347.681748 392.555606,347.458482 C392.030593,347.235215 391.639568,346.897593 391.377061,346.45106 C391.114555,346.004527 390.909472,345.525322 390.759078,344.999829 C390.461024,343.812705 390.461024,342.58474 390.759078,341.318656 C391.059866,340.052572 391.43175,338.900845 391.882933,337.858027 C392.626701,336.145411 393.564614,334.544427 394.683001,333.055077 C395.804122,331.571173 397.037355,330.193456 398.3827,328.927372 C399.506555,327.81104 400.682365,326.768223 401.912863,325.79892 C403.14883,324.835063 404.510582,323.980116 406.009056,323.234079 C407.499326,322.490766 409.107178,321.9326 410.827141,321.559581 C412.54437,321.186563 414.264334,321.113049 415.984297,321.336315 C415.385455,322.379132 414.805753,323.40289 414.245193,324.407589 C413.684632,325.409565 413.104931,326.436046 412.508822,327.476141 C412.134204,328.14594 411.797868,328.815739 411.499814,329.485538 C411.20176,330.155337 410.900971,330.863255 410.602917,331.606569 L409.593908,333.727599 C409.443514,334.100617 409.276713,334.470913 409.090771,334.843931 C408.902095,335.214227 408.658729,335.587245 408.360675,335.960263 Z M369.124179,357.671557 C367.84993,360.612139 366.395207,363.49282 364.751808,366.321768 C363.704517,368.254928 362.471284,370.079178 361.052109,371.791795 C359.632934,373.504411 357.948519,374.879405 356.007065,375.922223 C355.408223,376.292518 354.719144,376.611081 353.934359,376.869743 C353.14684,377.131128 352.362055,377.28088 351.577271,377.316276 C350.792486,377.354395 350.045984,377.28088 349.337763,377.09301 C348.624074,376.907862 348.008825,376.480389 347.486547,375.810589 C346.66348,374.767772 346.346285,373.539807 346.534961,372.126694 C346.720903,370.713581 347.076381,369.447497 347.598659,368.333888 C348.345161,366.694786 349.296747,365.224496 350.458884,363.920293 C351.615553,362.618814 352.829645,361.371789 354.10116,360.181943 C355.520335,358.918582 356.977792,357.764131 358.473531,356.724037 C359.969271,355.678496 361.500558,354.673798 363.070127,353.707218 C364.639696,352.74336 366.247547,351.866631 367.890946,351.085199 C369.534346,350.303767 371.216027,349.505998 372.93599,348.686447 C371.664475,351.738662 370.39296,354.728253 369.124179,357.671557 Z M562.334321,333.504333 C561.77376,333.207552 561.270623,333.281066 560.822175,333.727599 C559.479564,335.290464 558.131485,336.853329 556.78614,338.41347 C555.440795,339.976335 554.018885,341.503804 552.528615,342.993154 C552.000868,343.589439 551.443042,344.147605 550.844199,344.664929 C550.248091,345.190422 549.649248,345.710469 549.050406,346.227794 C548.601958,346.603535 548.115227,346.916652 547.592949,347.178037 C547.067936,347.439422 546.507376,347.643629 545.914002,347.793381 C545.388989,347.94041 544.863977,347.921351 544.341698,347.736203 C543.81942,347.551056 543.444802,347.235215 543.220577,346.78596 C542.848693,346.116161 542.679158,345.391906 542.71744,344.610474 C542.752988,343.831764 542.848693,343.104787 542.996353,342.434988 C543.146747,341.541923 543.351831,340.665194 543.614337,339.810247 C543.874109,338.9553 544.155756,338.119412 544.45381,337.299861 C544.604205,336.779814 544.790147,336.314222 545.014371,335.903085 C545.241329,335.494671 545.465554,335.067198 545.689778,334.620665 C545.985097,334.174132 546.266745,333.727599 546.529251,333.281066 C546.789023,332.831811 547.032388,332.385278 547.256613,331.938745 C548.079679,330.452118 548.845323,329.000887 549.556277,327.587774 C550.264498,326.174661 550.956311,324.723429 551.628984,323.234079 C551.702814,323.010813 551.853208,322.694973 552.077432,322.283836 C552.304391,321.875422 552.471192,321.467008 552.583304,321.055871 C552.695416,320.650179 552.711823,320.274438 552.640727,319.939539 C552.561428,319.604639 552.304391,319.365036 551.853208,319.215284 C551.47859,319.068255 551.142253,318.975681 550.844199,318.937563 C550.546145,318.899444 550.209809,318.844989 549.83519,318.768752 C547.891003,318.545485 545.968691,318.640782 544.062785,319.049196 C542.15688,319.45761 540.343945,320.072954 538.626716,320.889782 C537.204807,321.559581 535.859462,322.360073 534.587947,323.291257 C533.316432,324.219719 532.124215,325.208081 531.00036,326.248175 C529.581185,327.514259 528.271388,328.870194 527.079171,330.324148 C526.321731,331.241719 525.665465,332.230081 525.061154,333.253839 C524.949042,333.321908 524.83693,333.395422 524.724818,333.504333 L516.989084,342.100089 C516.018357,343.142906 515.04763,344.147605 514.074169,345.111462 C513.103443,346.080765 512.01787,346.935712 510.825653,347.681748 C510.52213,347.828777 510.166653,348.016648 509.759221,348.239914 C509.349055,348.46318 508.955296,348.498576 508.580677,348.351547 C507.984569,348.201795 507.664639,347.793381 507.629092,347.123582 C507.590809,346.45106 507.609951,345.892894 507.68378,345.446361 C508.058399,343.88622 508.657241,342.396869 509.477574,340.983757 C510.300641,339.570644 511.120973,338.190204 511.94404,336.853329 C512.466318,336.033778 512.991331,335.214227 513.513609,334.397398 C514.035887,333.577847 514.522618,332.720178 514.971066,331.827112 C515.867963,330.340485 516.466805,328.853857 516.764859,327.364507 C516.912519,326.621194 516.838689,325.910553 516.540635,325.243477 C516.242581,324.573678 515.682021,324.091749 514.858954,323.792245 C514.186281,323.495464 513.494468,323.383831 512.783513,323.457346 C512.075293,323.53086 511.345197,323.53086 510.601429,323.457346 C510.224076,323.383831 510.021728,323.307594 509.983445,323.234079 C509.942429,323.160565 509.964304,322.972694 510.038134,322.675913 C510.038134,322.452647 510.076416,322.24844 510.150246,322.060569 C510.224076,321.875422 510.300641,321.671215 510.377205,321.447948 C510.52213,321.07493 510.713541,320.704635 510.937765,320.331616 C511.16199,319.961321 511.306915,319.588303 511.386214,319.215284 C511.457309,318.621723 511.194803,318.194249 510.601429,317.932864 C509.999852,317.671479 509.515856,317.802172 509.141238,318.322219 L507.459556,320.219983 L503.874704,324.573678 C502.824679,325.839761 501.760981,327.067726 500.678142,328.257573 C499.592569,329.447419 498.493324,330.639989 497.372203,331.827112 C497.147979,332.050379 493.185774,336.611003 491.990823,337.912482 C490.793138,339.216685 489.562639,340.499105 488.291124,341.765189 C487.246567,342.731769 486.218418,343.682013 485.209409,344.610474 C484.2004,345.541658 483.060138,346.339427 481.788623,347.009226 L480.55539,347.570115 C480.40773,347.643629 480.164365,347.717144 479.828029,347.793381 C479.491692,347.866896 479.210045,347.828777 478.988555,347.681748 C478.764331,347.531996 478.652219,347.251552 478.652219,346.843138 C478.652219,346.437446 478.687767,346.116161 478.764331,345.892894 C478.911991,344.629533 479.190904,343.420627 479.603804,342.266177 C480.013971,341.111726 480.443278,339.940939 480.891726,338.74837 C481.640963,336.81521 482.425748,334.86299 483.248815,332.888989 C484.066412,330.91771 484.889479,328.927372 485.712546,326.917975 C486.087164,326.101146 486.442642,325.262536 486.778978,324.407589 C487.115314,323.54992 487.470792,322.714032 487.842676,321.894481 C487.91924,321.671215 488.012211,321.431612 488.124323,321.167504 C488.236435,320.908842 488.255576,320.666516 488.179012,320.44325 C488.031352,319.77345 487.618451,319.438551 486.945779,319.438551 C486.423501,319.438551 485.975052,319.77345 485.600434,320.44325 C484.482047,322.379132 483.303503,324.295956 482.07027,326.190997 C480.837037,328.088762 479.584663,330.005585 478.315883,331.938745 C476.817409,334.02438 475.286122,336.071896 473.716553,338.078571 C472.149718,340.090691 470.42702,341.950337 468.562131,343.662953 C467.886724,344.33003 467.159363,344.967156 466.377313,345.557995 C465.592528,346.157002 464.788602,346.638931 463.965536,347.009226 C463.366693,347.30873 462.620191,347.531996 461.723294,347.681748 C460.823663,347.828777 460.263102,347.458482 460.041613,346.562693 C459.817388,345.822102 459.852936,344.929037 460.153725,343.88622 C460.301385,343.21642 460.47092,342.546621 460.656862,341.876822 C460.842804,341.207023 461.047887,340.575343 461.272111,339.976335 C461.797124,338.492431 462.376825,337.00308 463.011216,335.51373 C463.64834,334.02438 464.301872,332.537753 464.974544,331.048403 C465.647217,329.559053 466.298014,328.034306 466.935139,326.471442 C467.569529,324.908577 468.187513,323.383831 468.786355,321.894481 C468.934015,321.5977 469.046127,321.298196 469.122692,321.001415 C469.196522,320.704635 469.084409,320.407854 468.786355,320.10835 C468.110948,319.588303 467.51484,319.588303 466.989828,320.10835 C466.842168,320.258102 466.730056,320.44325 466.653491,320.666516 C466.579661,320.889782 466.467549,321.07493 466.319889,321.224682 C465.269864,322.714032 464.170619,324.219719 463.011216,325.744465 C461.851813,327.269211 460.676003,328.77762 459.481052,330.26697 L457.23881,333.055077 C457.09662,333.196661 457.003649,333.398145 456.877864,333.561511 C456.765752,333.632303 456.659109,333.716708 456.566138,333.839232 C454.846174,335.775115 453.055116,337.615702 451.184758,339.363714 C449.3144,341.111726 447.334665,342.769888 445.242817,344.33003 L453.090663,326.583075 L454.775079,322.787547 C454.920004,322.414528 455.125087,321.987055 455.390328,321.502403 C455.6501,321.020475 455.743071,320.593001 455.671976,320.219983 C455.592677,319.699936 455.313764,319.365036 454.829768,319.215284 C454.340303,319.068255 453.91373,318.956622 453.539112,318.880385 C450.998816,318.433852 448.496802,318.545485 446.027602,319.215284 C443.561136,319.885084 441.223189,320.889782 439.021964,322.229381 C436.81527,323.568979 434.799987,325.169962 432.967911,327.029608 C431.135835,328.889253 429.585407,330.825136 428.316627,332.831811 C428.204515,333.000622 428.108809,333.177602 427.999431,333.349135 C427.756066,333.3927 427.523639,333.509778 427.307618,333.727599 C425.962273,335.290464 424.616928,336.853329 423.271583,338.41347 C421.926238,339.976335 420.504328,341.503804 419.011323,342.993154 C418.486311,343.589439 417.928485,344.147605 417.329642,344.664929 C416.7308,345.190422 416.134691,345.710469 415.535849,346.227794 C415.0874,346.603535 414.60067,346.916652 414.078392,347.178037 C413.553379,347.439422 412.992819,347.643629 412.39671,347.793381 C411.874432,347.94041 411.349419,347.921351 410.827141,347.736203 C410.304863,347.551056 409.930244,347.235215 409.70602,346.78596 C409.331402,346.116161 409.164601,345.391906 409.202883,344.610474 C409.238431,343.831764 409.331402,343.104787 409.481796,342.434988 C409.63219,341.541923 409.837273,340.665194 410.09978,339.810247 C410.359552,338.9553 410.641199,338.119412 410.939253,337.299861 C411.089647,336.779814 411.275589,336.314222 411.499814,335.903085 C411.724038,335.494671 411.948262,335.067198 412.172486,334.620665 C412.47054,334.174132 412.749453,333.727599 413.014694,333.281066 C413.274466,332.831811 413.517831,332.385278 413.742055,331.938745 C414.562388,330.452118 415.330766,329.000887 416.038986,327.587774 C416.749941,326.174661 417.441754,324.723429 418.114427,323.234079 C418.188257,323.010813 418.338651,322.694973 418.562875,322.283836 C418.787099,321.875422 418.956635,321.467008 419.068747,321.055871 C419.180859,320.650179 419.197265,320.274438 419.123436,319.939539 C419.046871,319.604639 418.787099,319.365036 418.338651,319.215284 C417.964032,319.068255 417.627696,318.975681 417.329642,318.937563 C417.031588,318.899444 416.695252,318.844989 416.320633,318.768752 C414.376446,318.545485 412.454134,318.640782 410.548228,319.049196 C408.639588,319.45761 406.826654,320.072954 405.109425,320.889782 C403.69025,321.559581 402.344905,322.360073 401.07339,323.291257 C399.801874,324.219719 398.606924,325.208081 397.485803,326.248175 C396.066628,327.514259 394.756831,328.870194 393.564614,330.324148 C392.648576,331.435035 391.877464,332.646663 391.180182,333.912747 C390.958692,334.010766 390.742671,334.160518 390.534854,334.397398 C388.81489,336.556548 386.854296,338.359015 384.650336,339.810247 C382.443642,341.261478 380.111164,342.58474 377.644698,343.774586 C380.630708,336.630062 383.548356,329.485538 386.389441,322.341014 C387.581657,319.215284 388.74106,316.070496 389.862181,312.906648 C390.983302,309.745523 392.030593,306.565338 393.004054,303.363371 C393.523598,301.650755 393.821652,299.905465 393.900951,298.116611 C393.972046,296.33048 393.597428,294.585191 392.77983,292.872574 C392.178253,291.532976 391.338779,290.400307 390.255941,289.4664 C389.170367,288.537939 387.994558,287.775566 386.725777,287.179281 C384.406971,286.209979 381.976053,285.839683 379.438491,286.06295 C376.895461,286.286216 374.541107,286.917896 372.37543,287.957991 C369.682005,289.226798 367.442498,290.972087 365.648705,293.207474 C363.854911,295.437415 362.433002,297.931464 361.388445,300.684175 C360.417719,303.289857 359.799735,305.969053 359.537229,308.721764 C359.277457,311.477198 359.277457,314.21085 359.537229,316.928165 C359.799735,319.645481 360.267325,322.360073 360.939997,325.077388 C361.61267,327.794704 362.397454,330.416722 363.291617,332.943444 C363.967023,334.732298 364.675244,336.461251 365.424481,338.135749 C366.170983,339.810247 366.99405,341.503804 367.890946,343.21642 L369.012067,345.223095 C369.310121,345.745865 369.739429,345.988191 370.299989,345.950072 C370.86055,345.911954 371.216027,345.598836 371.366421,344.999829 C371.440251,344.553296 371.366421,344.147605 371.142197,343.774586 C369.271839,340.648857 367.683129,337.373376 366.376066,333.950866 C365.069003,330.528355 364.002571,327.029608 363.179504,323.457346 C362.583396,320.778149 362.189637,318.063557 362.006429,315.308123 C361.815018,312.555412 361.949006,309.799978 362.397454,307.047267 C362.769338,304.221041 363.573264,301.487389 364.806497,298.843588 C366.03973,296.202511 367.817117,293.988906 370.130454,292.202775 C372.074641,290.637188 374.338759,289.539915 376.914602,288.908235 C379.49318,288.276554 382.017069,288.333732 384.480801,289.074323 C387.245321,289.820359 389.266073,291.421343 390.534854,293.877273 C391.207526,295.366623 391.470032,296.907706 391.319638,298.508689 C391.171978,300.109672 390.87119,301.650755 390.422741,303.140105 C389.525845,306.268557 388.516836,309.353445 387.39845,312.408383 C386.277329,315.460597 385.117926,318.545485 383.92024,321.671215 C382.574895,325.243477 381.191268,328.742224 379.774828,332.162012 C378.352918,335.587245 376.895461,339.08327 375.402456,342.658254 L374.393448,345.111462 C374.240319,345.334728 373.925858,345.541658 373.439128,345.726806 C372.955131,345.911954 372.561372,346.080765 372.263318,346.227794 L368.227283,348.016648 C365.235804,349.505998 362.397454,351.104258 359.706764,352.814152 C358.137195,353.856969 356.603174,354.973301 355.110169,356.165871 C353.614429,357.352994 352.156972,358.580959 350.737797,359.847043 C349.540112,361.03689 348.421726,362.305696 347.374435,363.642572 C346.327144,364.98217 345.506811,366.433401 344.907969,367.998989 C344.382956,369.259627 344.084902,370.618285 344.013807,372.072239 C343.934508,373.52347 344.197014,374.879405 344.795857,376.145489 C345.468529,377.558602 346.477538,378.5633 347.822883,379.159585 C349.168228,379.75587 350.587403,379.979136 352.083142,379.829384 C354.700002,379.606118 357.032481,378.674934 359.08878,377.038554 C361.14508,375.399452 362.919733,373.577926 364.415472,371.568528 C366.135435,369.186112 367.647581,366.637608 368.957379,363.920293 C370.261707,361.202978 371.478533,358.507445 372.599654,355.830971 L376.184506,347.458482 C376.334901,347.158978 376.559125,346.954771 376.857179,346.843138 C377.157967,346.731505 377.456022,346.603535 377.75681,346.45106 L380.111164,345.446361 C380.783836,345.078789 381.472916,344.705771 382.18387,344.33003 C382.892091,343.959734 383.583904,343.55132 384.256577,343.104787 C385.793333,342.187217 387.185163,341.12534 388.508633,339.998117 C388.221516,341.01643 388.010964,342.045633 387.95901,343.104787 C387.95901,344.294634 388.161359,345.446361 388.574259,346.562693 C388.984425,347.681748 389.714521,348.574814 390.759078,349.244613 C392.030593,350.064164 393.452502,350.380004 395.019337,350.192133 C396.588906,350.006986 398.010816,349.617631 399.282331,349.021346 C400.772601,348.201795 402.175369,347.178037 403.485167,345.950072 C404.789495,344.722107 405.968039,343.439687 407.018065,342.100089 C406.79384,343.589439 406.771965,345.095125 406.960641,346.619871 C407.146583,348.144617 408.024339,349.244613 409.593908,349.914412 C411.013083,350.581488 412.413117,350.638666 413.796744,350.0805 C415.180371,349.522334 416.394463,348.79808 417.441754,347.905014 C418.934759,346.715168 420.318386,345.413688 421.589901,343.997853 C422.686412,342.778056 423.782923,341.558259 424.879434,340.33574 C424.791932,340.738708 424.677085,341.130786 424.616928,341.541923 C424.466534,342.731769 424.48294,343.943398 424.671617,345.16864 C424.857559,346.396605 425.36343,347.458482 426.183763,348.351547 C427.231053,349.467879 428.52171,350.064164 430.052997,350.137678 C431.584284,350.211193 433.0226,350.026045 434.370679,349.579512 C436.011344,348.983228 437.487942,348.109221 438.797739,346.954771 C440.104802,345.80032 441.321629,344.594137 442.442749,343.328054 L443.227534,342.434988 L441.545853,346.45106 C441.469288,346.603535 441.392724,346.750564 441.321629,346.897593 C441.245064,347.047345 441.132952,347.197097 440.985292,347.346848 L437.619195,349.579512 C436.123456,350.546092 434.630451,351.531732 433.134712,352.53643 C431.641707,353.541129 430.25808,354.673798 428.989299,355.942604 C427.045111,357.799527 425.251318,359.847043 423.607919,362.08243 C421.96452,364.312371 420.731287,366.730182 419.90822,369.335864 C419.536336,370.378682 419.254689,371.418776 419.066012,372.461594 C418.882805,373.504411 418.863664,374.544506 419.008589,375.587323 C419.161718,377.07395 419.667589,378.397212 420.523469,379.551663 C421.384818,380.70339 422.670006,381.168983 424.392704,380.945716 C425.286866,380.795964 426.090792,380.461065 426.801746,379.941017 C427.512701,379.42097 428.166232,378.824686 428.765075,378.154886 C429.585407,377.112069 430.312769,376.052915 430.949893,374.974702 C431.584284,373.896489 432.202267,372.796493 432.798376,371.680161 C434.146455,369.147994 435.379688,366.583153 436.500809,363.977471 C437.619195,361.371789 438.778598,358.76883 439.973549,356.165871 L442.779086,349.802779 C443.00331,349.206494 443.263082,348.79808 443.561136,348.574814 L446.027602,346.897593 C446.700274,346.380268 447.372947,345.876558 448.048354,345.391906 C448.721026,344.909978 449.393699,344.370871 450.063637,343.774586 C451.110928,342.955035 452.100796,342.100089 453.035974,341.207023 C453.971153,340.313957 454.920004,339.382773 455.8962,338.41347 L457.126698,336.964962 C457.424752,336.668181 457.7064,336.387736 457.968906,336.126351 C458.228678,335.867689 458.433761,335.587245 458.584155,335.290464 C458.595093,335.274127 458.595093,335.260514 458.606031,335.244177 C458.953305,334.852099 459.292376,334.470913 459.593164,334.174132 L462.283854,330.713503 C461.611182,332.352605 460.935775,333.967202 460.263102,335.568185 C459.593164,337.169169 458.994322,338.789211 458.472043,340.425591 C458.094691,341.465685 457.799371,342.546621 457.575147,343.662953 C457.350923,344.776562 457.31264,345.857498 457.463035,346.897593 C457.687259,348.090162 458.247819,348.964168 459.144716,349.522334 C460.041613,350.0805 461.047887,350.28743 462.171742,350.137678 C463.440523,349.987926 464.654615,349.560453 465.816752,348.852535 C466.970686,348.144617 468.075401,347.382244 469.122692,346.562693 C471.291103,344.705771 473.268104,342.677314 475.061898,340.480046 C476.858426,338.285501 478.575655,336.033778 480.219054,333.727599 C479.546381,335.290464 478.89285,336.853329 478.258459,338.41347 C477.624069,339.976335 477.118197,341.577318 476.746313,343.21642 C476.522089,344.109486 476.352554,345.057007 476.240442,346.061705 C476.12833,347.066404 476.297865,347.978529 476.746313,348.79808 C477.041633,349.391642 477.473675,349.783719 478.034235,349.968867 C478.594796,350.156738 479.171763,350.230252 479.770605,350.192133 C480.369448,350.156738 480.968291,350.026045 481.564399,349.802779 C482.163241,349.579512 482.688254,349.356246 483.136702,349.13298 C484.257823,348.536695 485.30238,347.828777 486.273106,347.009226 C487.246567,346.192398 488.179012,345.334728 489.075909,344.441663 C490.1232,343.401568 491.151349,342.358751 492.157624,341.318656 C493.169367,340.275839 494.159235,339.235744 495.129961,338.190204 C495.50458,337.819909 499.835934,332.943444 499.835934,332.943444 C501.10745,331.45954 502.398106,329.989249 503.705169,328.535294 C505.012231,327.084063 506.300153,325.575654 507.571668,324.015512 C507.872457,324.835063 508.337312,325.35511 508.974437,325.575654 C509.606093,325.79892 510.300641,325.951395 511.049877,326.022186 C511.345197,326.022186 511.94404,326.008572 512.840936,325.967731 C513.737833,325.932335 514.224564,326.101146 514.298394,326.471442 C514.372223,327.141241 514.224564,327.849159 513.849945,328.592472 C513.475327,329.335786 513.138991,330.005585 512.840936,330.60187 C512.315924,331.494935 511.812787,332.352605 511.32879,333.169433 C510.839326,333.988984 510.336188,334.805812 509.81391,335.625363 C508.843183,337.114714 507.888864,338.677578 506.956419,340.313957 C506.02124,341.950337 505.403257,343.662953 505.107937,345.446361 C505.028638,346.116161 505.050514,346.78596 505.162626,347.458482 C505.274738,348.128281 505.498962,348.740902 505.832564,349.299068 C506.1689,349.857234 506.617348,350.28743 507.180643,350.581488 C507.741204,350.880992 508.433017,350.992625 509.25335,350.916388 C510.300641,350.769359 511.252226,350.399063 512.110841,349.802779 C512.97219,349.206494 513.811663,348.574814 514.63473,347.905014 C515.906245,346.862197 517.101196,345.745865 518.222317,344.553296 C519.343437,343.366172 520.426276,342.135484 521.473567,340.872123 L521.913812,340.382026 C521.689588,341.275092 521.522787,342.179049 521.473567,343.104787 C521.473567,344.294634 521.675916,345.446361 522.088816,346.562693 C522.498983,347.681748 523.229078,348.574814 524.276369,349.244613 C525.54515,350.064164 526.967059,350.380004 528.533894,350.192133 C530.103463,350.006986 531.525373,349.617631 532.796888,349.021346 C534.289893,348.201795 535.689927,347.178037 536.999724,345.950072 C538.304052,344.722107 539.482596,343.439687 540.532622,342.100089 C540.308398,343.589439 540.286522,345.095125 540.475198,346.619871 C540.66114,348.144617 541.538896,349.244613 543.108465,349.914412 C544.52764,350.581488 545.927674,350.638666 547.311301,350.0805 C548.694929,349.522334 549.911755,348.79808 550.956311,347.905014 C552.449316,346.715168 553.832943,345.413688 555.104459,343.997853 C556.375974,342.58474 557.644754,341.168904 558.916269,339.753069 C559.438548,339.16223 559.960826,338.546886 560.485839,337.912482 C561.008117,337.280802 561.568677,336.668181 562.16752,336.071896 C562.317914,335.922144 562.465574,335.756056 562.615968,335.568185 C562.766363,335.383038 562.878475,335.140712 562.952305,334.843931 C563.102699,334.247647 562.897616,333.801114 562.334321,333.504333 L562.334321,333.504333 Z" id="Fill-59" fill="#1A1919"></path>
        </g>
      </g>
    </g>
  </g>
</svg>
